====================== Sistem Akademik =======================

Selamat datang di Sistem Akademik Fasilkom!
Banyaknya Matkul di Fasilkom: Masukkan matkul yang ditambah
format: [Kode Matkul] [Nama Matkul] [SKS] [Kapasitas]
Banyaknya Mahasiswa di Fasilkom: Masukkan data mahasiswa
format: [Nama] [NPM]

----------------------------MENU------------------------------

Silakan pilih menu:
1. Add Matkul
2. Drop Matkul
3. Ringkasan Mahasiswa
4. Ringkasan Mata Kuliah
5. Keluar

Pilih: 

--------------------------ADD MATKUL--------------------------

Masukkan NPM Mahasiswa yang akan melakukan ADD MATKUL : Banyaknya Matkul yang Ditambah: Masukkan nama matkul yang ditambah
Nama matakuliah 01 : Nama matakuliah 11 : 
Silakan cek rekap untuk melihat hasil pengecekan IRS.


----------------------------MENU------------------------------

Silakan pilih menu:
1. Add Matkul
2. Drop Matkul
3. Ringkasan Mahasiswa
4. Ringkasan Mata Kuliah
5. Keluar

Pilih: 

--------------------------ADD MATKUL--------------------------

Masukkan NPM Mahasiswa yang akan melakukan ADD MATKUL : Banyaknya Matkul yang Ditambah: Masukkan nama matkul yang ditambah
Nama matakuliah 01 : Nama matakuliah 11 : 
Silakan cek rekap untuk melihat hasil pengecekan IRS.


----------------------------MENU------------------------------

Silakan pilih menu:
1. Add Matkul
2. Drop Matkul
3. Ringkasan Mahasiswa
4. Ringkasan Mata Kuliah
5. Keluar

Pilih: 

--------------------------ADD MATKUL--------------------------

Masukkan NPM Mahasiswa yang akan melakukan ADD MATKUL : Banyaknya Matkul yang Ditambah: Masukkan nama matkul yang ditambah
Nama matakuliah 01 : Nama matakuliah 11 : 
Silakan cek rekap untuk melihat hasil pengecekan IRS.


----------------------------MENU------------------------------

Silakan pilih menu:
1. Add Matkul
2. Drop Matkul
3. Ringkasan Mahasiswa
4. Ringkasan Mata Kuliah
5. Keluar

Pilih: 

--------------------------ADD MATKUL--------------------------

Masukkan NPM Mahasiswa yang akan melakukan ADD MATKUL : Banyaknya Matkul yang Ditambah: Masukkan nama matkul yang ditambah
Nama matakuliah 01 : 
Silakan cek rekap untuk melihat hasil pengecekan IRS.


----------------------------MENU------------------------------

Silakan pilih menu:
1. Add Matkul
2. Drop Matkul
3. Ringkasan Mahasiswa
4. Ringkasan Mata Kuliah
5. Keluar

Pilih: 

--------------------------ADD MATKUL--------------------------

Masukkan NPM Mahasiswa yang akan melakukan ADD MATKUL : Banyaknya Matkul yang Ditambah: Masukkan nama matkul yang ditambah
Nama matakuliah 01 : [DITOLAK] Netsos telah penuh kapasitasnya.
Nama matakuliah 11 : 
Silakan cek rekap untuk melihat hasil pengecekan IRS.


----------------------------MENU------------------------------

Silakan pilih menu:
1. Add Matkul
2. Drop Matkul
3. Ringkasan Mahasiswa
4. Ringkasan Mata Kuliah
5. Keluar

Pilih: 

--------------------------ADD MATKUL--------------------------

Masukkan NPM Mahasiswa yang akan melakukan ADD MATKUL : Banyaknya Matkul yang Ditambah: Masukkan nama matkul yang ditambah
Nama matakuliah 01 : Nama matakuliah 11 : Nama matakuliah 21 : Nama matakuliah 31 : Nama matakuliah 41 : Nama matakuliah 51 : Nama matakuliah 61 : Nama matakuliah 71 : Nama matakuliah 81 : Nama matakuliah 91 : [DITOLAK] Maksimal mata kuliah yang diambil hanya 10.
Nama matakuliah 101 : [DITOLAK] Netsos telah diambil sebelumnya.

Silakan cek rekap untuk melihat hasil pengecekan IRS.


----------------------------MENU------------------------------

Silakan pilih menu:
1. Add Matkul
2. Drop Matkul
3. Ringkasan Mahasiswa
4. Ringkasan Mata Kuliah
5. Keluar

Pilih: 

--------------------------ADD MATKUL--------------------------

Masukkan NPM Mahasiswa yang akan melakukan ADD MATKUL : Banyaknya Matkul yang Ditambah: Masukkan nama matkul yang ditambah
Nama matakuliah 01 : [DITOLAK] Maksimal mata kuliah yang diambil hanya 10.

Silakan cek rekap untuk melihat hasil pengecekan IRS.


----------------------------MENU------------------------------

Silakan pilih menu:
1. Add Matkul
2. Drop Matkul
3. Ringkasan Mahasiswa
4. Ringkasan Mata Kuliah
5. Keluar

Pilih: 
Masukkan npm mahasiswa yang akan ditunjukkan ringkasannya : 
--------------------------RINGKASAN--------------------------

Nama: Lika
NPM: 18020110200012
Jurusan: Sistem Informasi
Daftar Mata Kuliah: 
1. Netsos
2. POK
3. PSD
4. Kalku2
5. Kripto
6. Gamedev
7. Adbis
8. SIPA
9. DDAK
10. Basdat
Total SKS: 30
Hasil Pengecekan IRS:
1. SKS yang Anda ambil lebih dari 24
2. Mata Kuliah Netsos tidak dapat diambil jurusan SI
3. Mata Kuliah POK tidak dapat diambil jurusan SI
4. Mata Kuliah PSD tidak dapat diambil jurusan SI
5. Mata Kuliah Kalku2 tidak dapat diambil jurusan SI
6. Mata Kuliah Kripto tidak dapat diambil jurusan SI
7. Mata Kuliah Gamedev tidak dapat diambil jurusan SI

----------------------------MENU------------------------------

Silakan pilih menu:
1. Add Matkul
2. Drop Matkul
3. Ringkasan Mahasiswa
4. Ringkasan Mata Kuliah
5. Keluar

Pilih: 

--------------------------DROP MATKUL--------------------------

Masukkan NPM Mahasiswa yang akan melakukan DROP MATKUL : Banyaknya Matkul yang Di-drop: Masukkan nama matkul yang di-drop:
Nama matakuliah 01 : [DITOLAK] SIPA belum pernah diambil.

Silakan cek rekap untuk melihat hasil pengecekan IRS.


----------------------------MENU------------------------------

Silakan pilih menu:
1. Add Matkul
2. Drop Matkul
3. Ringkasan Mahasiswa
4. Ringkasan Mata Kuliah
5. Keluar

Pilih: 

--------------------------ADD MATKUL--------------------------

Masukkan NPM Mahasiswa yang akan melakukan ADD MATKUL : Banyaknya Matkul yang Ditambah: Masukkan nama matkul yang ditambah
Nama matakuliah 01 : [DITOLAK] Netsos telah penuh kapasitasnya.

Silakan cek rekap untuk melihat hasil pengecekan IRS.


----------------------------MENU------------------------------

Silakan pilih menu:
1. Add Matkul
2. Drop Matkul
3. Ringkasan Mahasiswa
4. Ringkasan Mata Kuliah
5. Keluar

Pilih: 

--------------------------ADD MATKUL--------------------------

Masukkan NPM Mahasiswa yang akan melakukan ADD MATKUL : Banyaknya Matkul yang Ditambah: Masukkan nama matkul yang ditambah
Nama matakuliah 01 : [DITOLAK] Netsos telah diambil sebelumnya.

Silakan cek rekap untuk melihat hasil pengecekan IRS.


----------------------------MENU------------------------------

Silakan pilih menu:
1. Add Matkul
2. Drop Matkul
3. Ringkasan Mahasiswa
4. Ringkasan Mata Kuliah
5. Keluar

Pilih: 

--------------------------ADD MATKUL--------------------------

Masukkan NPM Mahasiswa yang akan melakukan ADD MATKUL : Banyaknya Matkul yang Ditambah: Masukkan nama matkul yang ditambah
Nama matakuliah 01 : [DITOLAK] MD2 telah penuh kapasitasnya.

Silakan cek rekap untuk melihat hasil pengecekan IRS.


----------------------------MENU------------------------------

Silakan pilih menu:
1. Add Matkul
2. Drop Matkul
3. Ringkasan Mahasiswa
4. Ringkasan Mata Kuliah
5. Keluar

Pilih: 

--------------------------DROP MATKUL--------------------------

Masukkan NPM Mahasiswa yang akan melakukan DROP MATKUL : Banyaknya Matkul yang Di-drop: Masukkan nama matkul yang di-drop:
Nama matakuliah 01 : Nama matakuliah 11 : Nama matakuliah 21 : Nama matakuliah 31 : [DITOLAK] POK belum pernah diambil.

Silakan cek rekap untuk melihat hasil pengecekan IRS.


----------------------------MENU------------------------------

Silakan pilih menu:
1. Add Matkul
2. Drop Matkul
3. Ringkasan Mahasiswa
4. Ringkasan Mata Kuliah
5. Keluar

Pilih: 
Masukkan npm mahasiswa yang akan ditunjukkan ringkasannya : 
--------------------------RINGKASAN--------------------------

Nama: Lika
NPM: 18020110200012
Jurusan: Sistem Informasi
Daftar Mata Kuliah: 
1. Netsos
2. PSD
3. Kalku2
4. Adbis
5. SIPA
6. DDAK
7. Basdat
Total SKS: 21
Hasil Pengecekan IRS:
1. Mata Kuliah Netsos tidak dapat diambil jurusan SI
2. Mata Kuliah PSD tidak dapat diambil jurusan SI
3. Mata Kuliah Kalku2 tidak dapat diambil jurusan SI

----------------------------MENU------------------------------

Silakan pilih menu:
1. Add Matkul
2. Drop Matkul
3. Ringkasan Mahasiswa
4. Ringkasan Mata Kuliah
5. Keluar

Pilih: 

--------------------------DROP MATKUL--------------------------

Masukkan NPM Mahasiswa yang akan melakukan DROP MATKUL : [DITOLAK] Belum ada mata kuliah yang diambil.

----------------------------MENU------------------------------

Silakan pilih menu:
1. Add Matkul
2. Drop Matkul
3. Ringkasan Mahasiswa
4. Ringkasan Mata Kuliah
5. Keluar

Pilih: 
Masukkan nama mata kuliah yang akan ditunjukkan ringkasannya : 
--------------------------RINGKASAN--------------------------

Nama mata kuliah: MD1
Kode: CS
SKS: 4
Jumlah mahasiswa: 0
Kapasitas: 4
Daftar mahasiswa yang mengambil mata kuliah ini: 
Belum ada mahasiswa yang mengambil mata kuliah ini.

----------------------------MENU------------------------------

Silakan pilih menu:
1. Add Matkul
2. Drop Matkul
3. Ringkasan Mahasiswa
4. Ringkasan Mata Kuliah
5. Keluar

Pilih: 
Masukkan npm mahasiswa yang akan ditunjukkan ringkasannya : 
--------------------------RINGKASAN--------------------------

Nama: Ryaas
NPM: 18012808200017
Jurusan: Ilmu Komputer
Daftar Mata Kuliah: 
Belum ada mata kuliah yang diambil
Total SKS: 0
Hasil Pengecekan IRS:
IRS tidak bermasalah.

----------------------------MENU------------------------------

Silakan pilih menu:
1. Add Matkul
2. Drop Matkul
3. Ringkasan Mahasiswa
4. Ringkasan Mata Kuliah
5. Keluar

Pilih: 

--------------------------DROP MATKUL--------------------------

Masukkan NPM Mahasiswa yang akan melakukan DROP MATKUL : Banyaknya Matkul yang Di-drop: Masukkan nama matkul yang di-drop:
Nama matakuliah 01 : 
Silakan cek rekap untuk melihat hasil pengecekan IRS.


----------------------------MENU------------------------------

Silakan pilih menu:
1. Add Matkul
2. Drop Matkul
3. Ringkasan Mahasiswa
4. Ringkasan Mata Kuliah
5. Keluar

Pilih: 
Masukkan nama mata kuliah yang akan ditunjukkan ringkasannya : 
--------------------------RINGKASAN--------------------------

Nama mata kuliah: MD2
Kode: CS
SKS: 3
Jumlah mahasiswa: 3
Kapasitas: 4
Daftar mahasiswa yang mengambil mata kuliah ini: 
1. Dek
2. De
3. Alvin

----------------------------MENU------------------------------

Silakan pilih menu:
1. Add Matkul
2. Drop Matkul
3. Ringkasan Mahasiswa
4. Ringkasan Mata Kuliah
5. Keluar

Pilih: 

--------------------------DROP MATKUL--------------------------

Masukkan NPM Mahasiswa yang akan melakukan DROP MATKUL : Banyaknya Matkul yang Di-drop: Masukkan nama matkul yang di-drop:
Nama matakuliah 01 : [DITOLAK] POK belum pernah diambil.
Nama matakuliah 11 : [DITOLAK] PSD belum pernah diambil.
Nama matakuliah 21 : Nama matakuliah 31 : [DITOLAK] Basdat belum pernah diambil.
Nama matakuliah 41 : [DITOLAK] MD1 belum pernah diambil.

Silakan cek rekap untuk melihat hasil pengecekan IRS.


----------------------------MENU------------------------------

Silakan pilih menu:
1. Add Matkul
2. Drop Matkul
3. Ringkasan Mahasiswa
4. Ringkasan Mata Kuliah
5. Keluar

Pilih: 

--------------------------ADD MATKUL--------------------------

Masukkan NPM Mahasiswa yang akan melakukan ADD MATKUL : Banyaknya Matkul yang Ditambah: Masukkan nama matkul yang ditambah
Nama matakuliah 01 : Nama matakuliah 11 : 
Silakan cek rekap untuk melihat hasil pengecekan IRS.


----------------------------MENU------------------------------

Silakan pilih menu:
1. Add Matkul
2. Drop Matkul
3. Ringkasan Mahasiswa
4. Ringkasan Mata Kuliah
5. Keluar

Pilih: 
Masukkan npm mahasiswa yang akan ditunjukkan ringkasannya : 
--------------------------RINGKASAN--------------------------

Nama: Dek
NPM: 19020110200012
Jurusan: Sistem Informasi
Daftar Mata Kuliah: 
1. Netsos
Total SKS: 2
Hasil Pengecekan IRS:
1. Mata Kuliah Netsos tidak dapat diambil jurusan SI

----------------------------MENU------------------------------

Silakan pilih menu:
1. Add Matkul
2. Drop Matkul
3. Ringkasan Mahasiswa
4. Ringkasan Mata Kuliah
5. Keluar

Pilih: 
Masukkan npm mahasiswa yang akan ditunjukkan ringkasannya : 
--------------------------RINGKASAN--------------------------

Nama: Pe
NPM: 19012808200017
Jurusan: Ilmu Komputer
Daftar Mata Kuliah: 
1. Netsos
2. SIPA
3. DDAK
Total SKS: 9
Hasil Pengecekan IRS:
1. Mata Kuliah SIPA tidak dapat diambil jurusan IK
2. Mata Kuliah DDAK tidak dapat diambil jurusan IK

----------------------------MENU------------------------------

Silakan pilih menu:
1. Add Matkul
2. Drop Matkul
3. Ringkasan Mahasiswa
4. Ringkasan Mata Kuliah
5. Keluar

Pilih: 
Masukkan npm mahasiswa yang akan ditunjukkan ringkasannya : 
--------------------------RINGKASAN--------------------------

Nama: Lika
NPM: 18020110200012
Jurusan: Sistem Informasi
Daftar Mata Kuliah: 
1. Netsos
2. PSD
3. Kalku2
4. Adbis
5. SIPA
6. DDAK
7. Basdat
Total SKS: 21
Hasil Pengecekan IRS:
1. Mata Kuliah Netsos tidak dapat diambil jurusan SI
2. Mata Kuliah PSD tidak dapat diambil jurusan SI
3. Mata Kuliah Kalku2 tidak dapat diambil jurusan SI

----------------------------MENU------------------------------

Silakan pilih menu:
1. Add Matkul
2. Drop Matkul
3. Ringkasan Mahasiswa
4. Ringkasan Mata Kuliah
5. Keluar

Pilih: 
Masukkan nama mata kuliah yang akan ditunjukkan ringkasannya : 
--------------------------RINGKASAN--------------------------

Nama mata kuliah: POK
Kode: IK
SKS: 3
Jumlah mahasiswa: 0
Kapasitas: 4
Daftar mahasiswa yang mengambil mata kuliah ini: 
Belum ada mahasiswa yang mengambil mata kuliah ini.

----------------------------MENU------------------------------

Silakan pilih menu:
1. Add Matkul
2. Drop Matkul
3. Ringkasan Mahasiswa
4. Ringkasan Mata Kuliah
5. Keluar

Pilih: 
Masukkan nama mata kuliah yang akan ditunjukkan ringkasannya : 
--------------------------RINGKASAN--------------------------

Nama mata kuliah: MD2
Kode: CS
SKS: 3
Jumlah mahasiswa: 2
Kapasitas: 4
Daftar mahasiswa yang mengambil mata kuliah ini: 
1. De
2. Alvin

----------------------------MENU------------------------------

Silakan pilih menu:
1. Add Matkul
2. Drop Matkul
3. Ringkasan Mahasiswa
4. Ringkasan Mata Kuliah
5. Keluar

Pilih: 
Masukkan nama mata kuliah yang akan ditunjukkan ringkasannya : 
--------------------------RINGKASAN--------------------------

Nama mata kuliah: Netsos
Kode: IK
SKS: 2
Jumlah mahasiswa: 4
Kapasitas: 4
Daftar mahasiswa yang mengambil mata kuliah ini: 
1. Dek
2. De
3. Pe
4. Lika

----------------------------MENU------------------------------

Silakan pilih menu:
1. Add Matkul
2. Drop Matkul
3. Ringkasan Mahasiswa
4. Ringkasan Mata Kuliah
5. Keluar

Pilih: 
Masukkan nama mata kuliah yang akan ditunjukkan ringkasannya : 
--------------------------RINGKASAN--------------------------

Nama mata kuliah: Kripto
Kode: IK
SKS: 3
Jumlah mahasiswa: 0
Kapasitas: 4
Daftar mahasiswa yang mengambil mata kuliah ini: 
Belum ada mahasiswa yang mengambil mata kuliah ini.

----------------------------MENU------------------------------

Silakan pilih menu:
1. Add Matkul
2. Drop Matkul
3. Ringkasan Mahasiswa
4. Ringkasan Mata Kuliah
5. Keluar

Pilih: 
Sampai jumpa!
